Attribute,Updated,UpdateNote,Link
Pattern,No,txt,https://taxonomy.datax.ai/attributes/30
Color Category,No,txt,https://taxonomy.datax.ai/attributes/1081
Sleeve Length,No,txt,https://taxonomy.datax.ai/attributes/12381
Color Actual Shades,No,txt,NA
