Attribute,Updated,UpdateNote,Link
Color Category,Yes,txt,https://taxonomy.datax.ai/attributes/1081
Color Actual Shades,Yes,txt,NA
Sock Length,No,txt,NA
Sock Style,No,txt,https://taxonomy.datax.ai/attributes/7540
