Attribute,Updated,UpdateNote,Link
Frame Type,Yes,txt,https://taxonomy.datax.ai/attributes/965
Frame Style,Yes,txt,https://taxonomy.datax.ai/attributes/7569
Color Category,Yes,txt,https://taxonomy.datax.ai/attributes/1081
Color Actual Shades,Yes,txt,NA
