Attribute,Updated,UpdateNote,Link
Pattern,Yes,txt,https://taxonomy.datax.ai/attributes/30
Bra Type,Yes,txt,https://taxonomy.datax.ai/attributes/6389
Color Category,Yes,txt,https://taxonomy.datax.ai/attributes/1081
Color Actual Shades,Yes,txt,NA
