Attribute,Updated,UpdateNote,Link
Pattern,Yes,txt,https://taxonomy.datax.ai/attributes/30
Collar Type,Yes,txt,https://taxonomy.datax.ai/attributes/6268
Color Actual Shades,Yes,txt,NA
Sleeve Length,Yes,txt,https://taxonomy.datax.ai/attributes/12381
Color Category,Yes,txt,https://taxonomy.datax.ai/attributes/1081
