Attribute,Updated,UpdateNote,Link
Boot Height,Yes,txt,NA
Boot Style,Yes,txt,https://taxonomy.datax.ai/attributes/6322
Color Category,Yes,txt,https://taxonomy.datax.ai/attributes/1081
Color Actual Shades,Yes,txt,NA
