Attribute,Updated,UpdateNote,Link
Pattern,Yes,txt,https://taxonomy.datax.ai/attributes/30
Color Category,Yes,txt,https://taxonomy.datax.ai/attributes/1081
Dress & Skirt Length,Yes,txt,NA
Dress Occasion,Yes,txt,NA
Is Off Shoulder,Yes,txt,https://taxonomy.datax.ai/attributes/6276
Color Actual Shades,Yes,txt,NA
Collar Type,Yes,txt,https://taxonomy.datax.ai/attributes/6268
Sleeve Length,Yes,txt,https://taxonomy.datax.ai/attributes/12381
