Attribute,Updated,UpdateNote,Link
Color Category,Yes,txt,https://taxonomy.datax.ai/attributes/1081
Shoe Category,Yes,txt,https://taxonomy.datax.ai/attributes/6348
Color Actual Shades,Yes,txt,NA
Sandal Type,No,txt,https://taxonomy.datax.ai/attributes/7305
