Attribute,Updated,UpdateNote,Link
Pattern,Yes,txt,https://taxonomy.datax.ai/attributes/30
Color Category,Yes,txt,https://taxonomy.datax.ai/attributes/1081
Is Hooded,Yes,txt,https://taxonomy.datax.ai/attributes/6145
Sleeve Length,Yes,txt,https://taxonomy.datax.ai/attributes/12381
Sweatshirt & Hoodie Style,Yes,txt,NA
Color Actual Shades,Yes,txt,NA
