Attribute,Updated,UpdateNote,Link
Pattern,Yes,txt,https://taxonomy.datax.ai/attributes/30
Color Category,Yes,txt,https://taxonomy.datax.ai/attributes/1081
Color Actual Shades,Yes,txt,NA
Shorts Type,No,txt,https://taxonomy.datax.ai/attributes/7106
