Attribute,Updated,UpdateNote,Link
Pattern,Yes,txt,https://taxonomy.datax.ai/attributes/30
Color Category,Yes,txt,https://taxonomy.datax.ai/attributes/1081
Sleeve Length,Yes,txt,https://taxonomy.datax.ai/attributes/12381
Color Actual Shades,Yes,txt,NA
Outerwear Type,No,txt,NA
Suit Jacket Style,No,txt,NA
